-------------------------------------------------------------------------------
Test set: com.virtusa.flex.insight.InsightLiveDataValidatorConfigTest
-------------------------------------------------------------------------------
Tests run: 3, Failures: 0, Errors: 0, Skipped: 0, Time elapsed: 0.256 s - in com.virtusa.flex.insight.InsightLiveDataValidatorConfigTest
