C:\Users\vliyanage\Downloads\insight-data-validatorFrom server\insight-data-validator\src\main\java\com\virtusa\flex\insight\utils\MetricAnalyzer.java
C:\Users\vliyanage\Downloads\insight-data-validatorFrom server\insight-data-validator\src\main\java\com\virtusa\flex\insight\model\commons\ConfigMapper.java
C:\Users\vliyanage\Downloads\insight-data-validatorFrom server\insight-data-validator\src\main\java\com\virtusa\flex\insight\api\sonar\SonarQubeClient.java
C:\Users\vliyanage\Downloads\insight-data-validatorFrom server\insight-data-validator\src\main\java\com\virtusa\flex\insight\model\Request.java
C:\Users\vliyanage\Downloads\insight-data-validatorFrom server\insight-data-validator\src\main\java\com\virtusa\flex\insight\api\ApiResponse.java
C:\Users\vliyanage\Downloads\insight-data-validatorFrom server\insight-data-validator\src\main\java\com\virtusa\flex\insight\service\ReportGenerator.java
C:\Users\vliyanage\Downloads\insight-data-validatorFrom server\insight-data-validator\src\main\java\com\virtusa\flex\insight\api\RequestPayload.java
C:\Users\vliyanage\Downloads\insight-data-validatorFrom server\insight-data-validator\src\main\java\com\virtusa\flex\insight\utils\MetricDataComparator.java
C:\Users\vliyanage\Downloads\insight-data-validatorFrom server\insight-data-validator\src\main\java\com\virtusa\flex\insight\utils\MetricsMetaDataExtractor.java
C:\Users\vliyanage\Downloads\insight-data-validatorFrom server\insight-data-validator\src\main\java\com\virtusa\flex\insight\utils\InsightUtils.java
C:\Users\vliyanage\Downloads\insight-data-validatorFrom server\insight-data-validator\src\main\java\com\virtusa\flex\insight\api\sonar\SonarApiViolationResponse.java
C:\Users\vliyanage\Downloads\insight-data-validatorFrom server\insight-data-validator\src\main\java\com\virtusa\flex\insight\InsightDataValidatorApplication.java
C:\Users\vliyanage\Downloads\insight-data-validatorFrom server\insight-data-validator\src\main\java\com\virtusa\flex\insight\model\commons\ConfigDashboardDetails.java
C:\Users\vliyanage\Downloads\insight-data-validatorFrom server\insight-data-validator\src\main\java\com\virtusa\flex\insight\api\commons\ApiReference.java
C:\Users\vliyanage\Downloads\insight-data-validatorFrom server\insight-data-validator\src\main\java\com\virtusa\flex\insight\api\commons\ApiRegistry.java
C:\Users\vliyanage\Downloads\insight-data-validatorFrom server\insight-data-validator\src\main\java\com\virtusa\flex\insight\model\sonar\AuthResult.java
C:\Users\vliyanage\Downloads\insight-data-validatorFrom server\insight-data-validator\src\main\java\com\virtusa\flex\insight\api\commons\RequestOperation.java
C:\Users\vliyanage\Downloads\insight-data-validatorFrom server\insight-data-validator\src\main\java\com\virtusa\flex\insight\model\commons\ConfigNestedObjectMapper.java
C:\Users\vliyanage\Downloads\insight-data-validatorFrom server\insight-data-validator\src\main\java\com\virtusa\flex\insight\service\DataSourceResultMapper.java
C:\Users\vliyanage\Downloads\insight-data-validatorFrom server\insight-data-validator\src\main\java\com\virtusa\flex\insight\api\ApiClient.java
C:\Users\vliyanage\Downloads\insight-data-validatorFrom server\insight-data-validator\src\main\java\com\virtusa\flex\insight\dataSourceConfigurator\InsightDataSourceConfigurer.java
C:\Users\vliyanage\Downloads\insight-data-validatorFrom server\insight-data-validator\src\main\java\com\virtusa\flex\insight\metric\MetricsRawDataMapper.java
C:\Users\vliyanage\Downloads\insight-data-validatorFrom server\insight-data-validator\src\main\java\com\virtusa\flex\insight\api\Transport.java
C:\Users\vliyanage\Downloads\insight-data-validatorFrom server\insight-data-validator\src\main\java\com\virtusa\flex\insight\query\GenericDashboardQuery.java
C:\Users\vliyanage\Downloads\insight-data-validatorFrom server\insight-data-validator\src\main\java\com\virtusa\flex\insight\model\sonar\dto\ViolationMetaData.java
C:\Users\vliyanage\Downloads\insight-data-validatorFrom server\insight-data-validator\src\main\java\com\virtusa\flex\insight\extractor\DbDataExtractor.java
C:\Users\vliyanage\Downloads\insight-data-validatorFrom server\insight-data-validator\src\main\java\com\virtusa\flex\insight\api\commons\ApiCaller.java
C:\Users\vliyanage\Downloads\insight-data-validatorFrom server\insight-data-validator\src\main\java\com\virtusa\flex\insight\api\Auth.java
C:\Users\vliyanage\Downloads\insight-data-validatorFrom server\insight-data-validator\src\main\java\com\virtusa\flex\insight\api\sonar\SonarRequestPayload.java
C:\Users\vliyanage\Downloads\insight-data-validatorFrom server\insight-data-validator\src\main\java\com\virtusa\flex\insight\query\SonarDBQuery.java
